model,accuracy,AUC,log_loss,precision,recall,f1_score
dogs_cats_3x32_3x32_3x64_iterations3000,0.7525,0.82477957,0.52496314,1.0,0.5,0.6666666666666666
dogs_cats_3x32_3x32_3x64_iterations4000,0.761,0.8334057,0.53318334,1.0,0.5,0.6666666666666666
dogs_cats_3x32_3x32_3x64_iterations5000,0.7625,0.83771014,0.57448167,1.0,0.5,0.6666666666666666
dogs_cats_3x32_3x32_3x128_iterations3000,0.754,0.8272394,0.52586716,1.0,0.5,0.6666666666666666
dogs_cats_3x32_3x32_3x64_3x64_iterations3000,0.7205,0.80433947,0.54213256,1.0,0.5,0.6666666666666666
dogs_cats_3x32_3x32_3x64_3x64_iterations5000,0.7225,0.8116551,0.60220057,1.0,0.5,0.6666666666666666
dogs_cats_3x32_3x32_3x64_3x128_iterations3000,0.7485,0.828404,0.51729226,1.0,0.5,0.6666666666666666
dogs_cats_3x32_3x32_3x64_3x64_3x128_iterations3000,0.758,0.8453464,0.48981196,1.0,0.5,0.6666666666666666
dogs_cats_3x32_3x32_3x64_3x64_3x128_iterations5000,0.765,0.84820527,0.577105,1.0,0.5,0.6666666666666666

dogs_cats_6000_3x32_3x32_3x64_iterations5000,0.7085,0.7950641,0.89351106,1.0,0.5,0.6666666666666666
dogs_cats_6000_3x32_3x32_3x64_3x128_iterations3000,0.76,0.8471315,0.49701947,1.0,0.5,0.6666666666666666
dogs_cats_6000_3x32_3x32_3x64_3x64_3x128_iterations5000,0.755,0.83441323,0.6470608,1.0,0.5,0.6666666666666666

dogs_cats_4000_3x32_3x32_3x64_iterations5000,0.7375,0.8072221,0.91806585,1.0,0.5,0.6666666666666666
dogs_cats_4000_3x32_3x32_3x64_3x128_iterations3000,0.745,0.8201219,0.6212083,1.0,0.5,0.6666666666666666
dogs_cats_4000_3x32_3x32_3x64_3x64_3x128_iterations5000,0.7315,0.8132823,0.96563333,1.0,0.5,0.6666666666666666

dogs_cats_2000_3x32_3x32_3x64_iterations5000,0.7005,0.7647163,1.5961727,1.0,0.5,0.6666666666666666
dogs_cats_2000_3x32_3x32_3x64_3x128_iterations3000,0.721,0.7885774,1.100319,1.0,0.5,0.6666666666666666
dogs_cats_2000_3x32_3x32_3x64_3x64_3x128_iterations5000,0.737,0.7921249,1.4067825,1.0,0.5,0.6666666666666666

mnist_digits_5x32_5x32_5x64_iterations3000,0.9883,0.9935001,0.03771635,0.9883,0.9883,0.9883000481939395
mnist_digits_5x32_5x32_5x64_3x64_iterations3000,0.9867,0.99261117,0.04287414,0.9867,0.9867,0.9867000151443037
mnist_digits_5x32_5x32_5x64_3x64_3x128_iterations3000,0.9845,0.99138886,0.049966108,0.9845,0.9845,0.9845000072348961
mnist_clothes_5x32_5x32_5x64_iterations3000,0.8945,0.9413889,0.3400924,0.8945,0.8945,0.8945000473105612
mnist_clothes_5x32_5x32_5x64_3x64_iterations3000,0.8867,0.93705547,0.36523667,0.8867,0.8867,0.8866999494567117
mnist_clothes_5x32_5x32_5x64_3x64_3x128_iterations3000,0.8888,0.93822217,0.35846704,0.8888,0.8888,0.8888000541860391
